{
    "emacs-nativecomp": {
        "branch": "feature/native-comp",
        "description": "Mirror of GNU Emacs",
        "homepage": "http://www.gnu.org/software/emacs/",
        "owner": "emacs-mirror",
        "repo": "emacs",
        "rev": "9420ea6e0840bffcb140d3677dfdabb9251c1f63",
        "sha256": "1p40h84b7l6vlqfawb7sqfip8k73s4s2239xj06q9l658i56fp4a",
        "type": "tarball",
        "url": "https://github.com/emacs-mirror/emacs/archive/9420ea6e0840bffcb140d3677dfdabb9251c1f63.tar.gz",
        "url_template": "https://github.com/<owner>/<repo>/archive/<rev>.tar.gz"
    },
    "emacs-overlay": {
        "branch": "master",
        "description": "Bleeding edge emacs overlay [maintainer=@adisbladis] ",
        "homepage": "",
        "owner": "nix-community",
        "repo": "emacs-overlay",
        "rev": "f98b64c94f1302d444250f41442c63d1d16f0525",
        "sha256": "08v5x78hrjspd60jd2inq84az48lkqap21m0p3rbzv1pzfq1grdr",
        "type": "tarball",
        "url": "https://github.com/nix-community/emacs-overlay/archive/f98b64c94f1302d444250f41442c63d1d16f0525.tar.gz",
        "url_template": "https://github.com/<owner>/<repo>/archive/<rev>.tar.gz"
    },
    "niv": {
        "branch": "master",
        "description": "Easy dependency management for Nix projects",
        "homepage": "https://github.com/nmattia/niv",
        "owner": "nmattia",
        "repo": "niv",
        "rev": "ba57d5a29b4e0f2085917010380ef3ddc3cf380f",
        "sha256": "1kpsvc53x821cmjg1khvp1nz7906gczq8mp83664cr15h94sh8i4",
        "type": "tarball",
        "url": "https://github.com/nmattia/niv/archive/ba57d5a29b4e0f2085917010380ef3ddc3cf380f.tar.gz",
        "url_template": "https://github.com/<owner>/<repo>/archive/<rev>.tar.gz"
    },
    "nixpkgs": {
        "branch": "master",
        "description": "Nix Packages collection",
        "homepage": null,
        "owner": "NixOS",
        "repo": "nixpkgs",
        "rev": "d841f374c6c53f18514e8d9ea5ed8ec6018bff45",
        "sha256": "1z15fskcdyigrhid5sgbhbxkqw2nas3n5c9kiya01zahwxy9bhyy",
        "type": "tarball",
        "url": "https://github.com/NixOS/nixpkgs/archive/d841f374c6c53f18514e8d9ea5ed8ec6018bff45.tar.gz",
        "url_template": "https://github.com/<owner>/<repo>/archive/<rev>.tar.gz"
    },
    "nixpkgs-unstable": {
        "branch": "nixpkgs-unstable",
        "description": "Nix Packages collection",
        "homepage": null,
        "owner": "NixOS",
        "repo": "nixpkgs",
        "rev": "bea44d5ebe332260aa34a1bd48250b6364527356",
        "sha256": "14sfk04iyvyh3jl1s2wayw1y077dwpk2d712nhjk1wwfjkdq03r3",
        "type": "tarball",
        "url": "https://github.com/NixOS/nixpkgs/archive/bea44d5ebe332260aa34a1bd48250b6364527356.tar.gz",
        "url_template": "https://github.com/<owner>/<repo>/archive/<rev>.tar.gz"
    }
}
